<?xml version="1.0" encoding="UTF-8" standalone="no"?>
<!-- Created with Inkscape (http://www.inkscape.org/) -->

<svg
   xmlns:dc="http://purl.org/dc/elements/1.1/"
   xmlns:cc="http://creativecommons.org/ns#"
   xmlns:rdf="http://www.w3.org/1999/02/22-rdf-syntax-ns#"
   xmlns:svg="http://www.w3.org/2000/svg"
   xmlns="http://www.w3.org/2000/svg"
   xmlns:sodipodi="http://sodipodi.sourceforge.net/DTD/sodipodi-0.dtd"
   xmlns:inkscape="http://www.inkscape.org/namespaces/inkscape"
   width="846.42859"
   height="811.63092"
   viewBox="0 0 846.42859 811.63094"
   id="svg2"
   version="1.1"
   inkscape:version="0.91 r13725"
   sodipodi:docname="idea.svg"
   inkscape:export-filename="/home/gt/preview.png"
   inkscape:export-xdpi="90"
   inkscape:export-ydpi="90">
  <defs
     id="defs4" />
  <sodipodi:namedview
     id="base"
     pagecolor="#ffffff"
     bordercolor="#666666"
     borderopacity="1.0"
     inkscape:pageopacity="0.0"
     inkscape:pageshadow="2"
     inkscape:zoom="3.959798"
     inkscape:cx="140.92006"
     inkscape:cy="684.15539"
     inkscape:document-units="px"
     inkscape:current-layer="layer1"
     showgrid="false"
     units="px"
     inkscape:window-width="2558"
     inkscape:window-height="1438"
     inkscape:window-x="1920"
     inkscape:window-y="0"
     inkscape:window-maximized="0"
     fit-margin-top="0"
     fit-margin-left="0"
     fit-margin-right="0"
     fit-margin-bottom="0" />
  <metadata
     id="metadata7">
    <rdf:RDF>
      <cc:Work
         rdf:about="">
        <dc:format>image/svg+xml</dc:format>
        <dc:type
           rdf:resource="http://purl.org/dc/dcmitype/StillImage" />
        <dc:title />
      </cc:Work>
    </rdf:RDF>
  </metadata>
  <g
     inkscape:label="Layer 1"
     inkscape:groupmode="layer"
     id="layer1"
     transform="translate(-11.771482,-145.12395)">
    <rect
       transform="matrix(0,1,-1,0,0,0)"
       y="-243.2298"
       x="205.88284"
       height="231.45831"
       width="60.514847"
       id="rect4205"
       style="opacity:1;fill:#666666;fill-opacity:1;stroke:none;stroke-width:3;stroke-linejoin:round;stroke-miterlimit:4;stroke-dasharray:none;stroke-opacity:1" />
    <g
       id="g4317"
       inkscape:export-filename="/home/gt/dev/tinycoderu/dark-world/assets/player.png"
       inkscape:export-xdpi="90"
       inkscape:export-ydpi="90">
      <rect
         style="opacity:1;fill:#cccccc;fill-opacity:1;stroke:none;stroke-width:3;stroke-linejoin:round;stroke-miterlimit:4;stroke-dasharray:none;stroke-opacity:1"
         id="rect4305"
         width="31.571472"
         height="31.571472"
         x="74.932571"
         y="145.12395" />
      <rect
         y="165.95595"
         x="74.932571"
         height="10.739476"
         width="31.571472"
         id="rect4307"
         style="opacity:1;fill:#000000;fill-opacity:1;stroke:none;stroke-width:3;stroke-linejoin:round;stroke-miterlimit:4;stroke-dasharray:none;stroke-opacity:1" />
      <rect
         style="opacity:1;fill:#000000;fill-opacity:1;stroke:none;stroke-width:3;stroke-linejoin:round;stroke-miterlimit:4;stroke-dasharray:none;stroke-opacity:1"
         id="rect4309"
         width="5.150949"
         height="6.469564"
         x="98.503708"
         y="148.05312" />
    </g>
    <path
       inkscape:transform-center-y="0.26787459"
       inkscape:transform-center-x="-1.0547745"
       d="m 129.6576,161.43544 -9.444,5.45249 0,-10.90498 z"
       inkscape:randomized="0"
       inkscape:rounded="0"
       inkscape:flatsided="true"
       sodipodi:arg2="1.0471976"
       sodipodi:arg1="0"
       sodipodi:r2="3.1479974"
       sodipodi:r1="6.2959957"
       sodipodi:cy="161.43544"
       sodipodi:cx="123.3616"
       sodipodi:sides="3"
       id="path4311"
       style="opacity:1;fill:#000000;fill-opacity:1;stroke:none;stroke-width:3;stroke-linejoin:round;stroke-miterlimit:4;stroke-dasharray:none;stroke-opacity:1"
       sodipodi:type="star"
       inkscape:export-filename="/home/gt/dev/tinycoderu/dark-world/assets/canon.png"
       inkscape:export-xdpi="90"
       inkscape:export-ydpi="90" />
    <g
       id="g7605"
       transform="translate(46.428571,0.35714286)">
      <rect
         transform="matrix(0,1,-1,0,0,0)"
         y="-811.77148"
         x="356.39767"
         height="800"
         width="600"
         id="rect4254"
         style="opacity:1;fill:#666666;fill-opacity:1;stroke:none;stroke-width:3;stroke-linejoin:round;stroke-miterlimit:4;stroke-dasharray:none;stroke-opacity:1" />
      <g
         transform="translate(-131.86185,645.30602)"
         id="g4199">
        <rect
           style="opacity:1;fill:#cccccc;fill-opacity:1;stroke:none;stroke-width:3;stroke-linejoin:round;stroke-miterlimit:4;stroke-dasharray:none;stroke-opacity:1"
           id="rect5150"
           width="31.571472"
           height="31.571472"
           x="227.06596"
           y="254.52441" />
        <rect
           y="275.35641"
           x="227.06596"
           height="10.739476"
           width="31.571472"
           id="rect5152"
           style="opacity:1;fill:#000000;fill-opacity:1;stroke:none;stroke-width:3;stroke-linejoin:round;stroke-miterlimit:4;stroke-dasharray:none;stroke-opacity:1" />
        <rect
           style="opacity:1;fill:#000000;fill-opacity:1;stroke:none;stroke-width:3;stroke-linejoin:round;stroke-miterlimit:4;stroke-dasharray:none;stroke-opacity:1"
           id="rect5158"
           width="5.150949"
           height="6.469564"
           x="250.6371"
           y="257.45358" />
        <path
           sodipodi:type="star"
           style="opacity:1;fill:#000000;fill-opacity:1;stroke:none;stroke-width:3;stroke-linejoin:round;stroke-miterlimit:4;stroke-dasharray:none;stroke-opacity:1"
           id="path5160"
           sodipodi:sides="3"
           sodipodi:cx="240.85213"
           sodipodi:cy="268.33591"
           sodipodi:r1="6.2959957"
           sodipodi:r2="3.1479974"
           sodipodi:arg1="0"
           sodipodi:arg2="1.0471976"
           inkscape:flatsided="true"
           inkscape:rounded="0"
           inkscape:randomized="0"
           d="m 247.14812,268.33591 -9.44399,5.45249 0,-10.90499 z"
           inkscape:transform-center-x="-1.0547745"
           inkscape:transform-center-y="0.26787459" />
      </g>
      <rect
         style="opacity:1;fill:#333333;fill-opacity:1;stroke:none;stroke-width:3;stroke-linejoin:round;stroke-miterlimit:4;stroke-dasharray:none;stroke-opacity:1"
         id="rect4183"
         width="25"
         height="800"
         x="931.39771"
         y="-811.77148"
         transform="matrix(0,1,-1,0,0,0)" />
      <rect
         style="opacity:1;fill:#111111;fill-opacity:1;stroke:none;stroke-width:3;stroke-linejoin:round;stroke-miterlimit:4;stroke-dasharray:none;stroke-opacity:1"
         id="rect4322"
         width="12"
         height="12"
         x="868.38666"
         y="-165.06538"
         transform="matrix(0,1,-1,0,0,0)" />
      <rect
         transform="matrix(0,1,-1,0,0,0)"
         y="-233.99396"
         x="834.10095"
         height="12"
         width="12"
         id="rect4324"
         style="opacity:1;fill:#111111;fill-opacity:1;stroke:none;stroke-width:3;stroke-linejoin:round;stroke-miterlimit:4;stroke-dasharray:none;stroke-opacity:1" />
      <rect
         style="opacity:1;fill:#111111;fill-opacity:1;stroke:none;stroke-width:3;stroke-linejoin:round;stroke-miterlimit:4;stroke-dasharray:none;stroke-opacity:1"
         id="rect4326"
         width="12"
         height="12"
         x="830.88666"
         y="-377.20825"
         transform="matrix(0,1,-1,0,0,0)" />
      <rect
         transform="matrix(0,1,-1,0,0,0)"
         y="-471.13681"
         x="830.88666"
         height="12"
         width="12"
         id="rect4328"
         style="opacity:1;fill:#111111;fill-opacity:1;stroke:none;stroke-width:3;stroke-linejoin:round;stroke-miterlimit:4;stroke-dasharray:none;stroke-opacity:1" />
    </g>
    <rect
       transform="matrix(0,1,-1,0,0,0)"
       y="-155.96922"
       x="155.59969"
       height="12"
       width="12"
       id="rect4330"
       style="opacity:1;fill:#111111;fill-opacity:1;stroke:none;stroke-width:3;stroke-linejoin:round;stroke-miterlimit:4;stroke-dasharray:none;stroke-opacity:1"
       inkscape:export-filename="/home/gt/dev/tinycoderu/dark-world/assets/bullet.png"
       inkscape:export-xdpi="90"
       inkscape:export-ydpi="90" />
    <g
       transform="translate(-175.47067,-70.710678)"
       id="g7550">
      <rect
         y="215.83463"
         x="355.75497"
         height="31.571472"
         width="31.571472"
         id="rect7552"
         style="opacity:1;fill:#cccccc;fill-opacity:1;stroke:none;stroke-width:3;stroke-linejoin:round;stroke-miterlimit:4;stroke-dasharray:none;stroke-opacity:1" />
      <rect
         style="opacity:1;fill:#000000;fill-opacity:1;stroke:none;stroke-width:3;stroke-linejoin:round;stroke-miterlimit:4;stroke-dasharray:none;stroke-opacity:1"
         id="rect7554"
         width="31.571472"
         height="10.739476"
         x="355.75497"
         y="236.66663" />
      <rect
         y="218.76379"
         x="379.32611"
         height="6.469564"
         width="5.150949"
         id="rect7556"
         style="opacity:1;fill:#000000;fill-opacity:1;stroke:none;stroke-width:3;stroke-linejoin:round;stroke-miterlimit:4;stroke-dasharray:none;stroke-opacity:1" />
      <rect
         style="opacity:1;fill:#000000;fill-opacity:1;stroke:none;stroke-width:3;stroke-linejoin:round;stroke-miterlimit:4;stroke-dasharray:none;stroke-opacity:1"
         id="rect7558"
         width="5.150949"
         height="6.469564"
         x="369.32611"
         y="218.76379" />
    </g>
    <g
       id="g7568"
       transform="translate(-3.2142857,50.002548)"
       inkscape:export-filename="/home/gt/dev/tinycoderu/dark-world/assets/enemy.png"
       inkscape:export-xdpi="90"
       inkscape:export-ydpi="90">
      <rect
         y="95.121399"
         x="232.83678"
         height="31.571472"
         width="31.571472"
         id="rect7553"
         style="opacity:1;fill:#333333;fill-opacity:1;stroke:none;stroke-width:3;stroke-linejoin:round;stroke-miterlimit:4;stroke-dasharray:none;stroke-opacity:1" />
      <rect
         y="98.050568"
         x="256.40793"
         height="6.469564"
         width="5.150949"
         id="rect7557"
         style="opacity:1;fill:#f2f2f2;fill-opacity:1;stroke:none;stroke-width:3;stroke-linejoin:round;stroke-miterlimit:4;stroke-dasharray:none;stroke-opacity:1" />
    </g>
    <g
       transform="translate(-221.06529,54.642857)"
       id="g7572"
       inkscape:export-filename="/home/gt/dev/tinycoderu/dark-world/assets/brick.png"
       inkscape:export-xdpi="90"
       inkscape:export-ydpi="90">
      <rect
         style="opacity:1;fill:#333333;fill-opacity:1;stroke:none;stroke-width:3;stroke-linejoin:round;stroke-miterlimit:4;stroke-dasharray:none;stroke-opacity:1"
         id="rect7574"
         width="31.571472"
         height="31.571472"
         x="232.83678"
         y="90.481361" />
    </g>
    <rect
       y="941.18341"
       x="-4.2285175"
       height="31.571472"
       width="31.571472"
       id="rect7597"
       style="opacity:1;fill:#cccccc;fill-opacity:1;stroke:none;stroke-width:3;stroke-linejoin:round;stroke-miterlimit:4;stroke-dasharray:none;stroke-opacity:1" />
    <rect
       style="opacity:1;fill:#000000;fill-opacity:1;stroke:none;stroke-width:3;stroke-linejoin:round;stroke-miterlimit:4;stroke-dasharray:none;stroke-opacity:1"
       id="rect7599"
       width="31.571472"
       height="10.739476"
       x="-4.2285175"
       y="962.01538" />
    <rect
       y="944.11255"
       x="19.342617"
       height="6.469564"
       width="5.150949"
       id="rect7601"
       style="opacity:1;fill:#000000;fill-opacity:1;stroke:none;stroke-width:3;stroke-linejoin:round;stroke-miterlimit:4;stroke-dasharray:none;stroke-opacity:1" />
    <path
       inkscape:transform-center-y="0.26787459"
       inkscape:transform-center-x="-1.0547745"
       d="m 15.853642,954.99487 -9.4439941,5.4525 0,-10.90499 z"
       inkscape:randomized="0"
       inkscape:rounded="0"
       inkscape:flatsided="true"
       sodipodi:arg2="1.0471976"
       sodipodi:arg1="0"
       sodipodi:r2="3.1479974"
       sodipodi:r1="6.2959957"
       sodipodi:cy="954.99486"
       sodipodi:cx="9.5576458"
       sodipodi:sides="3"
       id="path7603"
       style="opacity:1;fill:#000000;fill-opacity:1;stroke:none;stroke-width:3;stroke-linejoin:round;stroke-miterlimit:4;stroke-dasharray:none;stroke-opacity:1"
       sodipodi:type="star" />
  </g>
</svg>
